1 10 20
100 200 125
201 210 89
900 1000 174
1 1 1
1000000 1000000 153
1 1000000 525
1000000 1 525
30334 979512 525
596446 230386 470
873338 46799 525
473053 84583 449
59973 143446 375
75620 210725 383
421951 580389 470
656519 192356 509
485947 908557 525
716364 107964 509
150494 720575 509
887929 395335 525
312907 210070 443
960250 796444 525
681669 443843 509
137949 622386 470
377457 669914 509
17770 678035 509
262229 382164 441
21270 567869 470
420619 301588 449
809612 418442 509
25036 564264 470
502314 681270 509
828932 322638 509
449288 858686 525
312802 901647 525
645628 666080 442
997424 720156 525
436153 519053 470
271272 584229 470
343752 529465 470
412262 392167 449
841404 233095 525
309651 753789 509
422854 844590 525
334189 351437 441
272464 750147 509
247031 426359 449
79636 463024 449
148032 283295 443
422214 886950 525
484941 799444 509
357356 388634 423
93384 678245 509
174807 185445 365
351798 585260 470
479564 32212 449
768253 319651 509
771536 654203 504
184533 261020 443
938611 340979 525
13235 491058 449
152776 388287 443
257168 519651 470
512304 54980 470
735050 79387 509
524128 383392 470
385946 16277 443
780681 749023 468
187331 10866 383
899719 40005 525
873292 237640 525
785593 928792 525
173942 908499 525
333444 663323 509
221531 540107 470
555205 896863 525
702275 686096 442
356423 86326 443
468348 950879 525
428206 61534 449
713174 222268 509
346823 452956 449
725257 519620 509
383960 630363 509
919962 263576 525
782643 904237 525
592020 90552 470
411001 691989 509
869128 156297 525
925494 983095 507
137880 321778 443
703879 536868 509
353007 235515 441
162525 417142 449
527805 582984 452
125386 558563 470
29314 631544 509
456283 959782 525
311697 138571 443
935807 549952 525
842345 593371 525
574162 788669 509
628501 339547 509
44513 930842 525
131361 196311 383
209690 436881 449
183267 7564 383
606357 406961 470
714318 889960 525
563155 61100 470
834215 18714 509
298186 973294 525
234605 752559 509
206462 264485 443
856459 935231 476
640547 453451 509
225169 874030 525
811442 487596 509
123808 709174 509
822056 867934 525
432214 625944 470
827954 381150 509
903615 182845 525
857911 533735 525
915098 509786 525
219256 956785 525
714506 436381 509
381639 879833 525
295441 658959 509
133526 873241 525
778952 68216 509
115475 117336 349
391321 93799 443
598448 409101 470
914787 825166 525
63616 710556 509
18094 317333 443
690072 313498 509
216109 916358 525
855569 645067 525
647764 595862 509
307760 328208 384
670603 534175 509
559796 331191 470
582348 282895 470
302257 885611 525
934703 271761 525
895614 966144 507
531493 313884 470
893874 630145 525
576077 374745 470
711272 662266 504
376330 402516 436
130396 718200 509
57665 198474 383
808204 291990 509
485347 595886 470
751057 489558 509
